  1  |accueillir                         |aufnehmen/empfangen/ankommen, honorieren               |     |352 |42379
  2  |accroître                          |steigern/vergrößern/mehren                             |     |28  |000092043366
  3  |accrocher                          |befestigen/aufhängen/einhaken/anhängen/festmachen      |     |180 |
  4  |aborder                            |ansprechen/eingehen/in Angriff nehmen/herangehen/nähern|     |253 |01246700107
  5  |abîmer                             |abnutzen/strapazieren, beschädigen/kaputtmachen, verderben/runinieren|     |148 |300010020047
  6  |le menton                          |Kinn                                                   |     |418 |24769
  7  |le mec                             |Kerl, Typ                                              |     |372 |9
  8  |le matou                           |der Kater(Tier)                                        |     |72  |20305824
  9  |le manche                          |Griff/Stiel/Heft   (aber la m.:Ärmel)                  |     |323 |236579
 10  |le loisir                          |Freizeit, tout à ****: mit Muße/Ruhe                   |     |77  |
 11  |le lièvre                          |Hase/Feldhase, pacemaker(sport)                        |     |0   |011120
 12  |le linge                           |die Wäsche, Weißzeug/Weißwäsche                        |     |23  |13757
 13  |le large                           |die Breite, offene See                                 |     |64  |
 14  |le lapin                           |Karnickel, Kaninchenfleisch                            |     |266 |9
 15  |le lange                           |Windel/Wickel                                          |     |219 |033560000337
 16  |le klaxon                          |die Hupe                                               |     |274 |9
 17  |le jeudi                           |Donnerstag                                             |     |365 |89
 18  |le hêtre                           |Buche (Baum)                                           |     |398 |151379
 19  |le hérisson                        |Igel, (fig): Kratzbürste/störrischer Kerl              |     |376 |457010201109
 20  |le givre                           |der Frost                                              |     |261 |69
 21  |le genou                           |das Knie                                               |     |209 |9
 22  |le frelon                          |die Hornisse                                           |     |367 |14669
 23  |le foyer                           |Herd/Feuerstätte, Heimstätte, Hausstand, Wohnheim      |     |291 |4369
 24  |le foutre                          |(vulg) die Wichse                                      |     |142 |304480020005
 25  |le fourré                          |das Gestrüpp                                           |     |21  |58000102
 26  |le fourgon                         |der Kastenwagen, Gepackwagen, Postwagen                |     |333 |79
 27  |le fossé                           |der Graben                                             |     |289 |0708
 28  |le foie                            |die Leber                                              |     |26  |16
 29  |le dégât                           |der Schaden                                            |     |452 |0379
 30  |le décollage                       |Start (Flugzeug)                                       |     |304 |69
 31  |le dortoir                         |Schlafsaal                                             |     |73  |
 32  |le deuil                           |Trauer, Trauerfall                                     |     |176 |123346700017
 33  |le câlin                           |Zärtlichkeit , liebevoll(adj)                          |     |319 |9
 34  |le cul                             |Arsch (plein le c)->Nase voll haben, Blödmann, Flaschenboden/Gefäßboden, Brummi(LKW)|     |269 |0143243502668
 35  |le crâne                           |Schädel/Totenkopf, Hirnschale                          |     |265 |69
 36  |le coupable                        |Schuldige/Täter.                                       |     |412 |9
 37  |le coude                           |der Ellenbogen, Bogen(arch)                            |     |382 |1369
 38  |le cou                             |Hals/Genick                                            |     |399 |0270214459
 39  |le cortège                         |Festzug/Gefolge/Prozession                             |     |252 |0003024202432048
 40  |le coquin                          |Spitzbube/Fechdachs/Schelm                             |     |48  |003
 41  |le conte                           |Märchen/Erzählung/Geschichte                           |     |117 |5535168
 42  |le congé                           |Urlaub/Ferien, (tech)auskehlung/Hohlkehle              |     |132 |63478
 43  |le con                             |Arschloch/Blödmann/Fotze                               |     |384 |15649
 44  |le colis                           |Paket/Frachtstück/Gepäckstück                          |     |454 |050042325679
 45  |le coffre                          |Truhe/Kiste/Schrein, Kofferraum, Schließfach/Safe/Tresor, Brustkasten|     |413 |579
 46  |le cochon                          |Schwein, Schweinefleisch, Schmierfink(fig),   c sauvage -> Wildschwein|     |270 |4009
 47  |le cil                             |Wimper                                                 |     |200 |55728
 48  |le chêne                           |die Eiche                                              |     |221 |9
 49  |le chevreuil                       |Reh                                                    |     |411 |0223629
 50  |le chemisier                       |die Bluse                                              |     |388 |079
 51  |le chaton                          |das Kätzchen                                           |     |150 |6355667
 52  |le charbon                         |Kohle (c de bois: Holzkohle)                           |     |203 |139
 53  |le chameau                         |Kamel     (schimpfwort: Zimtzicke)                     |     |271 |39
 54  |le cervidé                         |Hirsch                                                 |     |67  |27401014
 55  |le cerveau                         |das Hirn                                               |     |30  |
 56  |le cerf                            |Hirsch                                                 |     |224 |0070038
 57  |le carrelage                       |das Fliesenlegen, der Fliesenbelag                     |     |430 |9
 58  |le canot                           |Boot, Beiboot                                          |     |267 |3338028
 59  |le canapé                          |Sofa                                                   |     |330 |9
 60  |le cambrioleur                     |Dieb/Einbrecher                                        |     |255 |9
 61  |le caleçon                         |Boxershorts                                            |     |172 |
 62  |le buisson                         |Strauch/Gebüsch                                        |     |24  |16
 63  |le brouillard                      |Nebel                                                  |     |389 |9
 64  |le briquet                         |Feuerzeug                                              |     |294 |9
 65  |le brin                            |Halm/Stengel, Fädchen, ein kleines bisschen/ein wenig  |     |44  |00003
 66  |le bol                             |die Schale                                             |     |50  |
 67  |le blé                             |der Weizen                                             |     |185 |
 68  |le blague                          |ein Scherz/Ulk, Dummheit, Streich                      |     |155 |034348
 69  |le bilan                           |Abschluß/Fazit/Endergebnis, Bilanz/Bilanzsumme/Schlussrechnung|     |106 |
 70  |le bas                             |Strumpf/langer Strumpf, Unterteil                      |     |141 |
 71  |le banc                            |Sitzbank/Schulbank, Untiefe, (geol) Schicht            |     |378 |037129
 72  |le aulne/aune                      |Die Erle                                               |     |156 |
 73  |large                              |breit, weit, ausgedehnt                                |     |41  |
 74  |lambiner                           |bummeln/trödeln/herumtrödeln                           |     |136 |4460000000011206
 75  |la vérité                          |Wahrheit                                               |     |197 |9
 76  |la vigueur                         |Kraft/Rüstigkeit/Lebenskraft                           |     |3   |01011
 77  |la veine                           |die Vene                                               |     |332 |639
 78  |la vache                           |Kuh, (ugs)Bulle/Polizist                               |     |112 |
 79  |la tâche                           |Aufgabe/Arbeit/Arbeitspensum    (aber tache: Fleck)    |     |85  |027
 80  |la trouille                        |(ugs) Angst/Bammel/Schiss                              |     |434 |00202239
 81  |la tresse                          |der Zopf                                               |     |165 |
 82  |la tombe                           |das Grab                                               |     |105 |
 83  |la toile                           |Leinen/Leinentuch, Ölgemälde, Film, Web(internet)      |     |281 |8
 84  |la tenue                           |Betragen/Benehmen, Anstand/Manieren, Bekleidung        |     |324 |435701314018
 85  |la teneur                          |Inhalt/Gehalt (t en alcool -> Alkoholgehalt)           |     |80  |020244671314
 86  |la tempe                           |die Schläfe                                            |     |295 |659
 87  |la taille                          |Körpergröße, Taille                                    |     |273 |39
 88  |la tache                           |Fleck    (aber tâche:   Aufgabe/Arbeit)                |     |380 |6023469
 89  |la sueur                           |Schweiss, Angstschweiß                                 |     |343 |14659
 90  |la solitude                        |Einsamkeit                                             |     |184 |7
 91  |la scie                            |Säge, (ugs) Nervensäge                                 |     |457 |9
 92  |la rééducation                     |Reha                                                   |     |223 |03608
 93  |la rotule                          |Kniescheibe                                            |     |188 |5680016
 94  |la retraite                        |Rente/Ruhestand                                        |     |301 |9
 95  |la racine                          |die Wurzel                                             |     |431 |39
 96  |la punaise                         |Heftzwecke/Reißnagel    oder:  Oh punaise! -> Scheibenkleister!|     |229 |65738
 97  |la profondeur                      |die Tiefe                                              |     |325 |79
 98  |la poussière                       |der Staub                                              |     |458 |9
 99  |la poste                           |Post/Postamt/Postwesen                                 |     |386 |9
100  |la plume                           |die Feder                                              |     |174 |00127
101  |la plainte                         |Klage/Beschwerde                                       |     |195 |7
102  |la plaie                           |die Wunde, (fig) Nervensäge                            |     |93  |0494455001001136
103  |la penderie                        |Kleiderschrank, Kleiderkammer, Wäscheschrank           |     |91  |0124
104  |la peluche                         |Plüsch, Fussel, Stofftier                              |     |246 |00429
105  |la pelouse                         |Rasen/Wiese, Liegewiese, Fussballrasen                 |     |310 |9
106  |la paupière                        |Augenlid                                               |     |280 |369
107  |la patère                          |Kleiderhaken                                           |     |123 |6236027
108  |la paroi                           |Seitenwand, Bergwand, Innenwand                        |     |355 |014359
109  |la onde                            |Welle/Woge, Flut (o de choc -> Druckwelle)             |     |284 |6149
110  |la nuque                           |Nacken/Genick                                          |     |305 |3469
111  |la nièce                           |die Nichte                                             |     |120 |
112  |la nausée                          |Übelkeit/Ekel                                          |     |110 |0201340010125137
113  |la mouche                          |die Fliege                                             |     |470 |9
114  |la maternelle                      |Kindergarten, Kindertagesstätte, Vorschule             |     |335 |279
115  |la manche                          |Ärmel   (aber le m.:Griff)                             |     |438 |143647409
116  |la malaise                         |die Not, Unbehagen/Unwohlsein                          |     |312 |22432649
117  |la lèvre                           |Lippe                                                  |     |190 |9
118  |la lueur                           |der Lichtschein, Schimmer                              |     |393 |039
119  |la longuer                         |Länge, (schwimmsport) Bahn                             |     |347 |9
120  |la loi                             |Gesetz                                                 |     |357 |9
121  |la lisière                         |Rand/Kante, Waldrand                                   |     |95  |
122  |la lessive                         |die Wäsche, das Waschmittel/Waschpulver                |     |230 |9
123  |la langue                          |Zunge, Sprache                                         |     |189 |7
124  |la lame                            |Klinge/Schneide, Gleitkufe, Welle/Woge                 |     |87  |3
125  |la lacune                          |Lücke, Wissenslücke, Finanzierungslücke                |     |192 |000116
126  |la joue                            |die Wange/Backe                                        |     |463 |9
127  |la houille                         |Kohle/Steinkohle                                       |     |60  |001013
128  |la hanche                          |Hüfte/Hüftknochen                                      |     |362 |669
129  |la guêpe                           |Wespe                                                  |     |427 |12323569
130  |la grêle                           |der Hagel                                              |     |432 |003453639
131  |la grève                           |Streik/Arbeitskampf/Ausstand                           |     |232 |003345718
132  |la grille                          |Tabelle - oder Grill/Rost                              |     |237 |49
133  |la graine                          |Samen/Saatgut                                          |     |160 |254763226
134  |la gourde                          |Trinkflasche/Feldflasche                               |     |97  |0234037005
135  |la gorgée                          |ein Schluck                                            |     |385 |79
136  |la gorge                           |die Kehle, die Schlucht                                |     |55  |4
137  |la gifle                           |Backpfeife/Ohrfeige                                    |     |76  |0377
138  |la gamelle                         |Fressnapf , Futternapf , Blechnapf                     |     |306 |03549
139  |la figure                          |Gesicht, Gestalt, (math)Figur, Abbildung(sci)          |     |293 |02469
140  |la fiche                           |Zettel/Karteikarte, Kartei, Stecker/Steckverbinder     |     |287 |50259
141  |la fessée                          |(ugs)Haue/Schag-auf-den-Hintern                        |     |368 |043254649
142  |la fesse                           |Pobacke, Gesäss                                        |     |443 |0002659
143  |la fermeté                         |Standfestigkeit/Entschiedenheit, Festigkeit            |     |177 |7
144  |la dépense                         |Ausgabe/Geldaufwand/Kosten, Verbrauch                  |     |45  |
145  |la cuisse                          |Schenkel (anat.)                                       |     |206 |013537
146  |la cuisinière                      |der Herd                                               |     |290 |9
147  |la cour                            |Hof/Innenhof/Schulhof, Gerichtshof, Hofstaat           |     |194 |9
148  |la couette                         |Federbett/Steppdecke ,Zopf                             |     |258 |477017
149  |la corvée                          |lästige Arbeit/Schinderei                              |     |416 |002002324669
150  |la clôture                         |Umzäunung/Einfriedung/Zaun, Abschluß/Bilanzabschluß/Finanzschluß|     |46  |
151  |la clope                           |(ugs)Kippe/Glimmstängel                                |     |429 |016359
152  |la clef                            |Schlüssel                                              |     |442 |9
153  |la claque                          |Ohrfeige   (aber: le claque: kurz f. Zylinderhut)      |     |437 |56759
154  |la cheville                        |der Knöchel, (tech)Dübel, (tech)Stift/Bolzen           |     |103 |6741524
155  |la chenille                        |(bot)Raupe                                             |     |145 |00011435
156  |la cerise                          |Kirsche                                                |     |82  |2578
157  |la ceinture                        |der Gürtel                                             |     |349 |79
158  |la cambrure                        |Krümmung, Radsturz, Verzug(mech verzogen)              |     |286 |20012559
159  |la caisse                          |Kiste/Kasten, Geldkassette, Gehäuse/Karosserie, abfällig für Auto/Karre|     |366 |129
160  |la brune                           |die Abenddämmerung                                     |     |186 |
161  |la bouée                           |Schrimmring/Rettungsring                               |     |339 |0403560049
162  |la boussole                        |der Kompass                                            |     |318 |59
163  |la bougie                          |Kerze, Wachskerze, Zündkerze                           |     |425 |00002224549
164  |la boue                            |Dreck/Schmutz, Erde, Schlamm                           |     |476 |9
165  |la boucle                          |Ring, Locke, (tech)Schleife-loop, Schließe/Schnalle    |     |140 |
166  |la baie                            |Meeresbucht, Beere, Chassis/Schrank, Fensteröffnung/Türöffnung|     |151 |
167  |la bague                           |Ring(Finger), Bauchbinde, Schleifring                  |     |239 |03456030677
168  |la bagnole                         |Karre/Mühle/Kiste                                      |     |387 |9
169  |la baffe                           |Ohrfeige                                               |     |83  |27
170  |l'éponge (f)                       |Schwamm, frottee                                       |     |405 |00459
171  |l'épave (f)                        |(Schiffs-)wrack                                        |     |124 |002458
172  |l'élan (m)                         |Elch, Elan/Eigendynamik/Schwung, Anlauf                |     |222 |49
173  |l'église (f)                       |Kirche                                                 |     |213 |9
174  |l'écureuil (m)                     |Eichhörnchen                                           |     |218 |439
175  |l'âme (f)                          |Geist/Seele/Psyche                                     |     |396 |203554660419
176  |l'orteil (m)                       |Zehe                                                   |     |193 |9
177  |l'obus (m)                         |Granate(mil)                                           |     |482 |446036669
178  |l'imbécile (m)                     |Blödmann/Rindvieh/Dummkopf                             |     |71  |4
179  |l'espérance (f)                    |Erwartung/Hoffnung, Erwartungswert/Mittelwert (math), e de vie -> Lebenserwartung|     |317 |1259
180  |l'envie (f)                        |Bedürfnis/Drang, Neid/Missgunst                        |     |81  |
181  |l'enquête (f)                      |Befragung/Erhebung/Rundfrage, Untersuchung/Ermittlung, Strafverfolgung|     |334 |9
182  |l'enfer (m)                        |Hölle, Unterwelt                                       |     |202 |9
183  |l'effroi (m)                       |Entsetzen                                              |     |178 |006
184  |l'avenir (m)                       |die Zukunft                                            |     |337 |9
185  |l'aube (f)                         |die Morgendämmerung                                    |     |407 |63669
186  |l'asperge (f)                      |Spargel                                                |     |369 |69
187  |l'arbre (m)                        |Baum - auch Welle, Kurbelwelle, Spindel.               |     |250 |59
188  |l'arbitre                          |Schiedsrichter/Spielleiter/Unparteiischer              |     |182 |
189  |l'angoisse (f)                     |Angst/Beklommenheit/Angstzustand                       |     |409 |0234749
190  |l'alentours (m)                    |Umgebung/Ortsumgebung                                  |     |9   |
191  |l'aise (f)                         |Wohlbefinden/Bequemlichkeit                            |     |422 |012656219
192  |l'ail (m)                          |Knoblauch                                              |     |390 |0000033550469
193  |l'acquis (m)                       |die Errungenschaft                                     |     |169 |
194  |l'accueil (m)                      |Empfang/Rezeption/Aufnahme                             |     |173 |
195  |jumeaux                            |Zwillinge                                              |     |417 |279
196  |insolite (adj)                     |ungewöhnlich/ausgefallen                               |     |163 |54700208
197  |inquiéter                          |sorgen/besorgt sein um                                 |     |8   |1003024572
198  |inquiétant                         |beunruhigend                                           |     |400 |59
199  |honte (f)                          |Schande/Blamage, Beschämung, Schandfleck               |     |350 |14669
200  |honnête (adj)                      |aufrichtig/anständig/ehrlich                           |     |226 |37
201  |guère (adv)                        |kaum                                                   |     |338 |0250129
202  |gueule de bois                     |Kater/Brummschädel                                     |     |238 |9
203  |gravir                             |erklettern/aufsteigen/hinaufklettern                   |     |58  |530560001613
204  |fourrer                            |hineinstopfen, hineingeraten, (vulg)bumsen             |     |126 |03577016
205  |fournir                            |liefern                                                |     |420 |9
206  |fier                               |stolz                                                  |     |217 |0229
207  |exiguë                             |winzig                                                 |     |228 |000100216107
208  |exiger                             |beanspruchen/einfordern, verlangen, fordern            |     |381 |000000001419
209  |est (m)                            |der Osten                                              |     |128 |
210  |essuyer                            |abwischen/abputzen/wischen, abbekommen/abkriegen, trocknen|     |134 |27328
211  |essorer                            |auswringen/schleudern/trockenschleudern                |     |392 |0003360169
212  |entrepôt                           |Lagerhaus/Lagerstätte, Güterschuppen, Zolllager        |     |236 |049
213  |entrain (m)                        |Schwung , Begeisterung/Schwung                         |     |320 |20204355700048
214  |enterrer                           |vergraben/eingraben, beerdigen                         |     |27  |
215  |entailler qc                       |einschneiden/einritzen/einkerben                       |     |61  |5000000400000047
216  |enfermer                           |einschließen/einsperren, abdrängen(rennsport), schweigen hüllen/diskussion zurückziehen|     |279 |9
217  |enceinte                           |Nomen: Anlage/Stadtmauer/Umwallung, adjektiv: schwanger|     |257 |9
218  |en emploi de temps                 |Stundenplan                                            |     |204 |9
219  |empêcher                           |verhindern/unterbinden                                 |     |275 |300010306017
220  |emprunter                          |sich was leihen/ausborgen, etwas entnehmen, durch etwas gehen|     |336 |0023020250242359
221  |empressé (adj)                     |geschäftig/übereifrig/beflissen                        |     |1   |4000000002351003
222  |emporter                           |(Dinge) hinbringen                                     |     |415 |9
223  |emploi (m)                         |Arbeit/Stellung/Beschäftigung                          |     |478 |059
224  |emmener                            |(Personen) hinbringen (begleiten)                      |     |84  |5
225  |embrasser                          |umarmen/küssen                                         |     |394 |39
226  |edulcoré                           |gesüßt/versüsst (mit Zucker/Süßstoff)                  |     |211 |637
227  |déçu (adj)                         |enttäuscht                                             |     |17  |36
228  |détendre                           |entspannen/ausruhen/erholen                            |     |426 |030223669
229  |déteindre                          |ausbleichen/verblassen, abfärben/verfärben             |     |311 |39
230  |désormais                          |von nun an/nunmehr                                     |     |467 |02467059
231  |désespéré (adj)                    |verzweifelt/aussichtslos/ausweglos                     |     |419 |25233569
232  |dérober                            |entwenden/stehlen, versagen                            |     |170 |006
233  |déraper                            |ausrutschen, schleudern, rutschen                      |     |348 |9
234  |démentiel                          |unsinnig/verrückt                                      |     |364 |230160029
235  |démarrer                           |losfahren, starten, in Gang kommen, anlaufen, beginnen |     |445 |9
236  |déjucher                           |aufscheuchen, wegfliegen                               |     |231 |000000022167
237  |déhancher                          |Hufte schwingen                                        |     |395 |22479
238  |déguster                           |ertragen/leiden, zu höhren bekommen, geniessen         |     |152 |1026
239  |défiler                            |dahinziehen/vorrübergehen/vorbeimarschieren            |     |111 |565
240  |défaire                            |Auspacken,auseinandernehmen,raisziehen,auswickeln,aufmachen,...|     |328 |9
241  |défaillir                          |ohnmächtig werden, nachlassen/schwinden, sinken, schwach werden.|     |278 |33033242400418
242  |décéder                            |sterben/versterben                                     |     |259 |88
243  |décrocher                          |abnehmen/abheben, erobern/erschließen, geistig abschalten/ausklinken|     |79  |
244  |déchirer                           |zerreissen/zerfetzen/reissen                           |     |235 |9
245  |dur                                |fest/hart                                              |     |331 |8
246  |draguer                            |schleppnetzfischen, ausbaggern, (mädels) anbaggern     |     |109 |
247  |douce (adj)                        |angenehm/weich/süß/sanft/ruhig                         |     |444 |29
248  |deviner                            |raten/erraten/ahnen/herausfinden  (nicht verwchs. devenir)|     |459 |423232470369
249  |croquer                            |knabbern/beissen, knacken/knirschen, (zeichnen)skizzieren/umreissen/schnell entwerfen|     |113 |604360000257
250  |creuser                            |graben/ausgraben/aushöhlen/ausheben                    |     |78  |000000140534
251  |crasseux (adj)                     |dreckig/schmutzig                                      |     |171 |0002406
252  |coulisser                          |verschieben/in Führung gleiten                         |     |371 |04779
253  |couler                             |fliessen/strömmen/rinnen, (naut)untergehen             |     |68  |42767
254  |convoiter                          |anstreben/begehren/gieren                              |     |29  |
255  |convier                            |bitten/auffordern/laden                                |Le service peut convier celui-ci, à un entretien.|130 |0240404404000137
256  |contrariée                         |verärgert/verstimmt                                    |     |127 |00006
257  |contempler                         |bewundern/anschauen/betrachten                         |     |340 |5402439
258  |congelè(e)                         |gefrohren (tiefkühl)                                   |     |450 |9
259  |confier qc à qn                    |etwas anvertrauen/beauftragen/überlassen               |     |358 |024669
260  |coincé(e)                          |eingeklemmt                                            |     |207 |9
261  |coincer                            |einklemmen/drücken/klemmen                             |     |404 |9
262  |chuchoter                          |murmeln/fluestern                                      |     |42  |000212421237
263  |chiant (adj)                       |nervig/beschissen/saublöd                              |     |297 |01152359
264  |chialer                            |flennen/heulen                                         |     |56  |233460012604
265  |censé                              |verlangen/erwarten/wissen daß  ??                      |     |7   |000000000000
266  |bée (adj)                          |geöffnet (Mund)   bouche bée: baff sein, geöffnetem Mund dastehen.|     |89  |0335376
267  |brailler                           |brüllen/schreien/grölen, laut weinen/plärren           |     |326 |3228
268  |bourré (adj)                       |randvoll/vollgestopft, besoffen/knülle, prall voll     |     |360 |0135229
269  |bosser                             |buckeln, malochen, schaffen.                           |     |433 |55679
270  |bondé(e)                           |überfüllt / vollgestopft.     Le Métro ***** - überfüllte Metro.|     |254 |9
271  |bondir                             |springen/aufspringen                                   |     |225 |040457707
272  |boire la tasse                     |baden gehen/scheitern, Wasser schlucken                |     |92  |
273  |bavarder                           |schwatzen/plaudern                                     |     |341 |7323514009
274  |atroce                             |grässlich                                              |     |424 |29
275  |arroser                            |(Rasen) sprengen/begiessen/berieseln, begiessen(Alkohol trinken)|     |401 |9
276  |arracher                           |ausreissen/abreissen/ausrupfen                         |     |329 |79
277  |approfondi(e) (adj)                |gründlich/sorgfältig/vertieft/genau                    |     |475 |041035653719
278  |apporter                           |(Dinge) herbringen/mitbringen                          |     |33  |
279  |améliorer                          |verbessern, nachbessern                                |     |316 |649
280  |amener                             |(Personen) herbringen/mitbringen                       |     |292 |19
281  |aléatoire (adj)                    |zufällig                                               |     |303 |9
282  |aisément                           |leicht/mühelos/ohne weiteres                           |     |116 |13551001307
283  |aigle (m)                          |Adler                                                  |     |327 |02259
284  |agité (adj)                        |unruhig/aufgeregt/bewegt                               |     |322 |011024519
285  |aggraver                           |verschlimmern/verschärfen/zuspitzen                    |     |234 |9
286  |afin-que, afin-de                  |damit, um ... zu                                       |     |383 |03012343505359
287  |affamé (adj)                       |hungrig                                                |     |321 |01234350568
288  |acquis (adj)                       |erworben/erlernt/antrainiert                           |     |363 |44639
289  |ôter                               |abziehen/weglegen/ausziehen/abnehmen                   |     |88  |
290  |éviter                             |vermeiden/verhüten/ausweichen                          |     |440 |1379
291  |étroit                             |schmal/eng/knapp                                       |     |480 |19
292  |étouffer                           |unterdrücken/totschweigen, ersticken/abwürgen          |     |314 |35369
293  |épuisé                             |erschöpft/totmüde/ausgebrannt                          |     |455 |70479
294  |éprouvé                            |bewährt/verlässlich/treu/erprobt                       |     |408 |0402679
295  |épeler                             |buchstabieren                                          |     |147 |
296  |éméché                             |beschwipst/angeheitert                                 |     |5   |345800040
297  |éloigné (adj)                      |entfernt/abgelegen/entlegen                            |     |53  |0024766
298  |élire qn                           |jdm auserwählen/wählen/küren                           |     |242 |0003049
299  |économiser                         |sparen/einsparen/dafür sparen                          |     |25  |47
300  |ébloui (adj)                       |beeindruckt/geblendet/hingerissen                      |     |471 |02318019
301  |ça cloche, qc cloche               |etwas stimmt nicht                                     |     |351 |69
302  |vêtu (adj)                         |bekleidet                                              |     |359 |9
303  |viticole (adj)                     |Winbau... (z.B. domaine v -> Weingut)                  |     |149 |18
304  |viser                              |anstreben/hinzielen, zielen/anlegen                    |     |34  |03
305  |vierge (adj)                       |jungfräulich (anat. und Übertrag.)                     |     |36  |048
306  |verser                             |eingiessen/ausschenken/auszahlen/schuetten             |     |403 |1259
307  |usant(e) (adj)                     |anstrengend                                            |     |35  |4136258
308  |une échelle                        |Leiter, Maßstab/Skala                                  |     |102 |
309  |une connerie                       |Dummheit                                               |     |248 |0568
310  |une chaussette                     |Socken/Strumpf                                         |     |435 |9
311  |une astuce                         |Kniff/Trick/Finesse                                    |     |241 |00354667027
312  |une armoire                        |Kleiderschrank, Wandschrank/Schrank                    |     |245 |8
313  |une araignée                       |eine Spinne                                            |     |70  |
314  |un(e) gamin(e)                     |kleiner Junge/Mädchen                                  |     |479 |03689
315  |un êtang                           |Teich/Weiher                                           |     |181 |0234468
316  |un échec                           |Fehlschlag/Versagen (plural échecs: Schachspiel)       |     |121 |
317  |un écart                           |Abstand, Unterschied, Sprung, Diskrepanz               |     |421 |00203000159
318  |un raccourci                       |eine Abkürzung (Weg)                                   |     |74  |
319  |un nourrisson                      |Säugling                                               |     |37  |
320  |un entretien                       |Gespräch/Unterhaltung, Reinigung/Wartung/Instandhaltung|     |154 |55
321  |un dédale                          |Labyrinth                                              |     |96  |001032016015
322  |un descendant                      |Nachfahre/Nachkomme/Spross                             |     |456 |9
323  |un baiser                          |Kuss                                                   |     |104 |
324  |un avoir                           |Guthaben/Vermögen, Gutschein, Bon, Gutschrift          |     |168 |028
325  |un attelage                        |Anhängerkupplung, Gespann (Fz mit Hänger)              |     |296 |0018
326  |tôt                                |früh/zeitig/bald                                       |     |216 |9
327  |très                               |sehr / wesentlich                                      |     |474 |9
328  |trafiquer                          |aushecken, herumbasteln, frisieren(motor), pantschen, Gewinn draus schlagen|     |66  |03
329  |tour d'horizon                     |Überblick                                              |     |99  |
330  |torride (adj)                      |brennend heiß/tropisch                                 |     |54  |001466070204
331  |tiède                              |lauwarm                                                |     |108 |
332  |titubant (adj)                     |schwankend/taumelnd                                    |     |299 |748
333  |tenter                             |versuchen, wagen                                       |     |446 |303553679
334  |tapoter                            |klopfen                                                |     |276 |88
335  |taper                              |tippen/stossen/hauen, anpumpen/borgen, hände klatschen |     |465 |2112389
336  |soutenir                           |behaupten/befürworten/zu jmd. halten/zu jdm. stehen    |     |143 |138
337  |soupçonner                         |verdächtigen, vermuten/argwohnen                       |     |214 |16
338  |soulager                           |entlasten/abnehmen/erleichtern/befreien                |     |159 |7
339  |souhaiter                          |wünschen                                               |     |94  |
340  |soit                               |also, nämlich                                          |     |298 |043222500119
341  |sentir                             |fühlen/empfinden/befinden, richen, duften              |     |249 |9
342  |selon                              |gemäß/getreu/laut                                      |     |466 |10305043634379
343  |se plier                           |sich (etw) beugen/fügen/anpassen, einknicken           |     |353 |06536400109
344  |se planquer, p qc.                 |in Sicherheit bringen                                  |     |158 |02260146
345  |sacrément                          |verdammt                                               |     |354 |739
346  |s'ennuyer                          |langweilen                                             |     |377 |549
347  |rôder                              |herumstreifen/streunen/umschleichen                    |     |196 |3001103113030116
348  |répandre                           |verbreiten/ausbreiten/herumsprechen, verschütten/verstreuen|     |119 |5001000132017
349  |ronfler                            |schnarchen                                             |     |191 |9
350  |rimer                              |reimen/dichten/Verse machen                            |     |300 |0437448
351  |rigoler                            |lachen, flachsen, Spaesschenmachen.                    |     |441 |9
352  |repérer                            |auffinden/zurechtfinden, orten                         |     |272 |40213303139
353  |reprocher                          |vorwerfen/anlasten                                     |     |175 |
354  |replacer                           |zurückbringen/stellen, eine neue Stelle vermitteln     |     |12  |00442
355  |renoncer                           |anlassen/absehen/zurücktreten/verzichten               |     |464 |11013045819
356  |remarquer                          |bemerken                                               |     |315 |2239
357  |reculer                            |rückwärts gehen, zurücksetzen/rückwätsfahren, aufschieben/hinauszögern|     |247 |9
358  |recouvrir                          |abdecken/zudecken                                      |     |460 |9
359  |reconnaître                        |erkennen/wieder erkennen, auskennen (se r.), wiedererkennen (r. qn)|     |264 |269
360  |rayé (adj)                         |gestreift, verschrammt                                 |     |361 |9
361  |ravissant (adj)                    |reitzend/entzückend/hinreißend                         |     |210 |007077
362  |ravir qn.                          |jmdn. begeistern/entzücken/bezaubern/hinreißen         |     |179 |6512450001356
363  |raboter                            |hobeln/abhobeln/schälen                                |     |373 |4579
364  |péter                              |explodieren/kaputtmachen/kaputtreissen, furzen/pupen   |     |22  |0023367
365  |prêter                             |ausleihen/ausborgen/leihen                             |     |114 |
366  |précéder                           |vorangehen/vorausfahren                                |     |138 |5
367  |priver                             |entbehren/verzichten/aberkennen/vorenthalten           |     |262 |0224602657
368  |pis (adv)                          |schlimmer/übler                                        |     |4   |147000054303
369  |pire (adj)                         |schlimmer/übler                                        |     |370 |0345539
370  |pincer                             |klneifen/klemmen                                       |     |199 |39
371  |piller                             |ausrauben                                              |     |125 |35
372  |picoler                            |(ugs)bechern/picheln/trinken/zechen                    |     |98  |
373  |partenaire                         |Partner(in)                                            |     |263 |9
374  |parier                             |wetten, Geschäft reden, was besprechen                 |     |75  |
375  |pantalon                           |Hose                                                   |     |436 |9
376  |ours (m)                           |Bär                                                    |     |410 |2769
377  |ouest (m)                          |der Westen                                             |     |205 |8
378  |osé(adj)                           |gewagt/kühn/wagemutig/dreist                           |     |346 |56748
379  |ordonner                           |befehlen/anordnen                                      |     |43  |
380  |noyer (v)                          |ertrinken, überschwemmen                               |     |227 |02334377
381  |nase (adj)                         |hinüber/im Eimer/fertig/kaputt/k.o., bescheuert/durchgeknallt   (auch: naze)|     |406 |603545459
382  |nain (adj)                         |zwerg.../zwergenhaft/zwergwüchsig                      |     |307 |8
383  |mou/molle                          |weich                                                  |     |468 |9
384  |moche (adj)                        |hässlich                                               |     |122 |
385  |mignon (adj)                       |reizend/zierlich/schön/niedlich                        |     |65  |0367003
386  |mener                              |leiten/anführen/durchführen                            |     |472 |0039
387  |mendier                            |betteln                                                |     |2   |60010014020114
388  |menacer                            |drohen                                                 |     |288 |03369
389  |malin (adj)                        |schlau/clever, bösartig/boshaft                        |réduire le risque d'un cancer malin, ...|59  |0000000000320005
390  |lécher                             |lecken/ablecken                                        |     |220 |00239
391  |lâcher                             |fallen lassen/loslassen/nachgeben, im Stich lassen     |     |118 |5767
392  |lune de miel                       |Flitterwochen                                          |     |342 |79
393  |lorsque                            |wenn/als                                               |     |379 |1021201229
394  |lié (adj)                          |nahe/gebunden/bedingt                                  |     |139 |
395  |lisser                             |glätten/ebnen/glatt streichen                          |     |449 |124502259
396  |les tripes (f)                     |die Eingeweide                                         |     |268 |69
397  |les friandises                     |Süssigkeiten/Leckereien, Leckerbissen                  |     |166 |46
398  |les boyaux (m)                     |Gedärme                                                |     |374 |123355020179
399  |le/la stagiaire                    |Praktikant                                             |     |198 |377
400  |le/la convive                      |der Gast                                               |     |313 |134365660148
401  |le voyant                          |Anzeige, Schauglas, Signalfeuer/Kontrollleuchte        |     |414 |62679
402  |le virement                        |Giro, Überweisung (bank)                               |     |201 |29
403  |le vestiaire                       |Unkleidekabine/Umkleideraum/Spielerkabine              |     |344 |79
404  |le ventre                          |der Bauch, Speckbauch                                  |     |233 |0429
405  |le vendredi                        |der Freitag                                            |     |453 |9
406  |le tuyau                           |Rohr/Leitung/Röhre, Schlauch                           |     |251 |0002200228
407  |le tronc                           |Stamm, Baumstamm, Rumpf                                |     |51  |71647
408  |le treillis                        |Geflecht, Gitterwerk, Fachwerk, Gitter                 |     |144 |
409  |le tendon                          |die Sehne (anat.)                                      |     |308 |29
410  |le taux                            |Rate (x/sec), Quote/Prozentsatz, Zinsfuß, Gebührensatz |     |49  |00146667
411  |le taureau                         |Stier                                                  |     |345 |459
412  |le tas                             |Haufen/Stapel/Menge/Stoß                               |     |423 |0454529
413  |le tapage                          |Lärm/Spektakel                                         |     |244 |4249
414  |le talon                           |Ferse, Absatz(Schuh), Huf(Pferd)                       |     |282 |1267608
415  |le tailleur                        |Damenkostüm/Kostüm/Jackenkleid                         |     |240 |460013101237
416  |le tableau                         |Bild/Gemälde, Tafel/Wandtafel, Tablett, Tabelle/Liste, Schalttafel|     |135 |
417  |le suçon                           |Knutschfleck                                           |     |15  |01
418  |le soupir                          |Seufzer                                                |     |40  |
419  |le souffle                         |Atem/Anhauch, Atemzug, Hauch, Schnaufer,  Eierauflauf,  (techn)Rauschen/Zischen|     |285 |024347077
420  |le son                             |Ton/Klang                                              |     |462 |9
421  |le soin                            |Sorgfalt/Bemühung, Pflege, Sorgfalt                    |     |461 |9
422  |le singe                           |der Affe                                               |     |187 |
423  |le sein                            |Brust (Busen)                                          |     |283 |459
424  |le seigle                          |der Roggen                                             |     |16  |477031301
425  |le seau                            |Eimer/Kübel                                            |     |451 |669
426  |le sapin                           |Tanne/Tannenbaum, Tannenholz                           |     |162 |
427  |le rôti                            |der Braten                                             |     |115 |
428  |le régal                           |Leckerbissen                                           |     |47  |00003
429  |le réfectoire                      |Speisesaal                                             |     |260 |9
430  |le ronron                          |Eintönigkeit, das Schnurren                            |     |448 |0245700119
431  |le rivage                          |Küstenstrich/Ufer                                      |     |256 |04029
432  |le requin                          |Hai                                                    |     |69  |
433  |le renseignement                   |Auskunft/Belehrung, Belehrung/Hinweis, Auskunftei/Auskunftstelle|     |302 |1469
434  |le renard                          |Fuchs, Fuchspelz                                       |     |469 |9
435  |le remède                          |Hausmittel                                             |     |183 |
436  |le rayonnage                       |Regal                                                  |     |447 |9
437  |le radeau                          |das Floß                                               |     |146 |387
438  |le quotidien                       |der Alltag, die Tageszeitung                           |     |391 |014449
439  |le précipice                       |Abgrund                                                |     |133 |
440  |le poussin                         |Küken, Kinderklasse(sport)                             |     |161 |0303467
441  |le poumon                          |die Lunge                                              |     |157 |
442  |le pouce                           |Daumen, großer Zeh                                     |     |215 |29
443  |le pote                            |Freund/Kumpel/Kamerad                                  |     |397 |7459
444  |le poste d'essence                 |Tankstelle                                             |     |375 |9
445  |le poste                           |Stelle/Posten/Wachhaus/Polizeirevier                   |     |86  |0140037
446  |le poignet                         |Handgelenk                                             |     |439 |0234470119
447  |le poignard                        |der Dolch                                              |     |38  |0264745
448  |le piège                           |die Falle, (techn)Drossel                              |     |473 |023554679
449  |le pis                             |der Euter                                              |     |32  |
450  |le peignoir                        |Bademantel                                             |     |18  |005005
451  |le peigne                          |der Kamm                                               |     |208 |5126727
452  |le patin                           |Schlittschuh                                           |     |100 |66
453  |le pare-brise                      |Windschutzscheibe/Heckscheibe                          |     |481 |9
454  |le papillon                        |Schmetterling/Falter, Haftnotitz, Handzettel           |     |39  |404
455  |le panier                          |Korb, Einkaufskorb, Nähkorb, Heissluftballon: Korb     |     |129 |00337
456  |le noyer                           |Nussbaum, Nussbaumholz                                 |     |131 |0146
457  |le noyau                           |Kern, Atomkern, Stammbelegschaft, Nukleus              |     |11  |027000112
458  |le neveu                           |der Neffe                                              |     |402 |89
459  |le mollet                          |die Wade                                               |     |62  |3037725
460  |le moineau                         |Spatz, Sperling                                        |     |153 |
461  |le miel                            |Honig                                                  |     |277 |69
462  |ignorer                            |nicht wissen, nicht beachten                           |Le Gouvernement ignore les avertissements de la Commission.|243 |8
463  |incontournable                     |unumgänglich/unausweichlich/Muss                       |     |107 |17
464  |l'accroc (m)                       |Riss (sans accroc -> ohne Hindernis)                   |dérouler sans accroc|167 |7
465  |le bouleau                         |die Birke                                              |     |20  |02000400011
466  |la trottinette                     |Tretroller                                             |     |309 |48
467  |la ficelle                         |Faden/Bindfaden, Korden/Schnur                         |     |13  |41
468  |le foulard                         |Halstuch/Schal, Kopftuch                               |     |57  |101013
469  |déconner                           |blödeln/Mist reden/Scheiße bauen                       |     |212 |07
470  |dévier                             |abweichen/ablenken/ausschlagen                         |     |164 |001025
471  |enculer qn                         |Ar... ficken                                           |va te faire enculer!|19  |102
472  |évoquer qc                         |etwas erwähnen/an etwas erinnern                       |évoquer qc en passant(etw. beiläufig erwähnen)|101 |00000000024
473  |la fiabilité                       |Zuverlässigkeit/Vertrauenswürdigkeit                   |La fiabilité des avions a également beaucoup augmenté.|137 |2005
474  |larguer                            |abwerfen/fallen lassen/losmachen                       |L'Enola Gay est l'avion qui a largué la bombe sur Hiroshima.|356 |8
475  |le décrochage                      |Sich-Absetzen, Strömungsabriß                          |     |14  |010200
476  |le palier                          |Phase/Stadium, Treppenabsatz/Plateau/Stufe, Achlager/Wellenlager|     |63  |04
477  |le sentier                         |Pfad/Weg                                               |     |428 |29
478  |l'engouement(m)                    |Begeisterung/Schwärmerei/Entzücken                     |     |10  |000000000011
479  |naître                             |geboren werden/zur Welt kommen                         |     |477 |9
480  |jouxter qc                         |an etw angrenzen                                       |     |31  |0003
481  |le chantier                        |Baustelle, Lagerplatz                                  |     |52  |4
482  |le hibou                           |Eule                                                   |     |90  |14
483  |la poisse                          |Pech/kein Glück  (ugs)                                 |     |6   |20
